%YAML 1.1
%TAG !u! tag:unity3d.com,2011:
--- !u!74 &7400000
AnimationClip:
  m_ObjectHideFlags: 0
  m_CorrespondingSourceObject: {fileID: 0}
  m_PrefabInstance: {fileID: 0}
  m_PrefabAsset: {fileID: 0}
  m_Name: anim_Qmark
  serializedVersion: 6
  m_Legacy: 0
  m_Compressed: 0
  m_UseHighQualityCurve: 1
  m_RotationCurves: []
  m_CompressedRotationCurves: []
  m_EulerCurves: []
  m_PositionCurves: []
  m_ScaleCurves: []
  m_FloatCurves: []
  m_PPtrCurves:
  - curve:
    - time: 0
      value: {fileID: 21300000, guid: ea577ea68a9054494a61f561d6e29a19, type: 3}
    - time: 0.09090909
      value: {fileID: 21300000, guid: 6a4ec47d5ed414760948931e42b1e2fd, type: 3}
    - time: 0.18181819
      value: {fileID: 21300000, guid: 96cdf714a9fbb4b33bcacb3c46e62cf1, type: 3}
    - time: 0.27272728
      value: {fileID: 21300000, guid: 60445fb15e047498a959c85cf4451a7a, type: 3}
    - time: 0.36363637
      value: {fileID: 21300000, guid: 642016c629a704b15bb9248d8088a490, type: 3}
    - time: 0.45454547
      value: {fileID: 21300000, guid: 9674cec4e5f2a416f85d556a74899b76, type: 3}
    - time: 0.54545456
      value: {fileID: 21300000, guid: c20d64c6f19bd49d2bd8653b2f480251, type: 3}
    - time: 0.6363636
      value: {fileID: 21300000, guid: 942a258eafbc940ad87bd9162f244407, type: 3}
    - time: 0.72727275
      value: {fileID: 21300000, guid: e1282758756264acdbe93d8b02d5e1fb, type: 3}
    - time: 0.8181818
      value: {fileID: 21300000, guid: 2026461ca922e44a58e85510a5f91f04, type: 3}
    - time: 0.90909094
      value: {fileID: 21300000, guid: 537721c530c8049cdbea6e329416ecab, type: 3}
    - time: 1
      value: {fileID: 21300000, guid: 37d1c330c917b4c7cb8ff3a3315edf99, type: 3}
    - time: 1.0909091
      value: {fileID: 21300000, guid: 3bea30b2c826e4290824ab143f45553d, type: 3}
    - time: 1.1818181
      value: {fileID: 21300000, guid: 73f8859ee57ae42179cc8cc671469986, type: 3}
    - time: 1.2727273
      value: {fileID: 21300000, guid: cb4fce22437184344bd47523680326a7, type: 3}
    - time: 1.3636364
      value: {fileID: 21300000, guid: d27a87514361946ef807e06201c26c3b, type: 3}
    - time: 1.4545455
      value: {fileID: 21300000, guid: d4567cbbb88c246c9b7a1007d8d1f8e8, type: 3}
    - time: 1.5454545
      value: {fileID: 21300000, guid: aac848cb8f479403280deefc6b9ac2d2, type: 3}
    - time: 1.6363636
      value: {fileID: 21300000, guid: 2e000837f74684b108d86d2f1c8ac670, type: 3}
    - time: 1.7272727
      value: {fileID: 21300000, guid: efef6ffcdc82140c2abe155ecf6a43a2, type: 3}
    - time: 1.8181819
      value: {fileID: 21300000, guid: 87a54bcd9b11a48819a4ad76f7f6fbe8, type: 3}
    - time: 1.9090909
      value: {fileID: 21300000, guid: e24b6b2657a0d485fa8576a7875c4b68, type: 3}
    - time: 2
      value: {fileID: 21300000, guid: bb5d7c0ef6d5f4afe874c5b37631aae1, type: 3}
    attribute: m_Sprite
    path: 
    classID: 212
    script: {fileID: 0}
  m_SampleRate: 22
  m_WrapMode: 0
  m_Bounds:
    m_Center: {x: 0, y: 0, z: 0}
    m_Extent: {x: 0, y: 0, z: 0}
  m_ClipBindingConstant:
    genericBindings:
    - serializedVersion: 2
      path: 0
      attribute: 0
      script: {fileID: 0}
      typeID: 212
      customType: 23
      isPPtrCurve: 1
    pptrCurveMapping:
    - {fileID: 21300000, guid: ea577ea68a9054494a61f561d6e29a19, type: 3}
    - {fileID: 21300000, guid: 6a4ec47d5ed414760948931e42b1e2fd, type: 3}
    - {fileID: 21300000, guid: 96cdf714a9fbb4b33bcacb3c46e62cf1, type: 3}
    - {fileID: 21300000, guid: 60445fb15e047498a959c85cf4451a7a, type: 3}
    - {fileID: 21300000, guid: 642016c629a704b15bb9248d8088a490, type: 3}
    - {fileID: 21300000, guid: 9674cec4e5f2a416f85d556a74899b76, type: 3}
    - {fileID: 21300000, guid: c20d64c6f19bd49d2bd8653b2f480251, type: 3}
    - {fileID: 21300000, guid: 942a258eafbc940ad87bd9162f244407, type: 3}
    - {fileID: 21300000, guid: e1282758756264acdbe93d8b02d5e1fb, type: 3}
    - {fileID: 21300000, guid: 2026461ca922e44a58e85510a5f91f04, type: 3}
    - {fileID: 21300000, guid: 537721c530c8049cdbea6e329416ecab, type: 3}
    - {fileID: 21300000, guid: 37d1c330c917b4c7cb8ff3a3315edf99, type: 3}
    - {fileID: 21300000, guid: 3bea30b2c826e4290824ab143f45553d, type: 3}
    - {fileID: 21300000, guid: 73f8859ee57ae42179cc8cc671469986, type: 3}
    - {fileID: 21300000, guid: cb4fce22437184344bd47523680326a7, type: 3}
    - {fileID: 21300000, guid: d27a87514361946ef807e06201c26c3b, type: 3}
    - {fileID: 21300000, guid: d4567cbbb88c246c9b7a1007d8d1f8e8, type: 3}
    - {fileID: 21300000, guid: aac848cb8f479403280deefc6b9ac2d2, type: 3}
    - {fileID: 21300000, guid: 2e000837f74684b108d86d2f1c8ac670, type: 3}
    - {fileID: 21300000, guid: efef6ffcdc82140c2abe155ecf6a43a2, type: 3}
    - {fileID: 21300000, guid: 87a54bcd9b11a48819a4ad76f7f6fbe8, type: 3}
    - {fileID: 21300000, guid: e24b6b2657a0d485fa8576a7875c4b68, type: 3}
    - {fileID: 21300000, guid: bb5d7c0ef6d5f4afe874c5b37631aae1, type: 3}
  m_AnimationClipSettings:
    serializedVersion: 2
    m_AdditiveReferencePoseClip: {fileID: 0}
    m_AdditiveReferencePoseTime: 0
    m_StartTime: 0
    m_StopTime: 2.0454545
    m_OrientationOffsetY: 0
    m_Level: 0
    m_CycleOffset: 0
    m_HasAdditiveReferencePose: 0
    m_LoopTime: 1
    m_LoopBlend: 0
    m_LoopBlendOrientation: 0
    m_LoopBlendPositionY: 0
    m_LoopBlendPositionXZ: 0
    m_KeepOriginalOrientation: 0
    m_KeepOriginalPositionY: 1
    m_KeepOriginalPositionXZ: 0
    m_HeightFromFeet: 0
    m_Mirror: 0
  m_EditorCurves: []
  m_EulerEditorCurves: []
  m_HasGenericRootTransform: 0
  m_HasMotionFloatCurves: 0
  m_Events: []
